{
   "materials":[
      "Medical Equipment - Large",
      "Computer Peripherals - Internal",
      "#2 Rigid Plastics",
      "Clothing",
      "Treated Glass Containers",
      "Newspaper",
      "Weeds",
      "#7 Plastic Bottles",
      "Wood Stains",
      "Microwaves",
      "Brass",
      "Power Tools",
      "Paper Shredders",
      "#5 Plastic Cups",
      "Grass Clippings",
      "Video Game Cartridges",
      "#2 Plastic Bottles",
      "#7 Plastic Film",
      "Car Batteries",
      "Incandescent Lightbulbs",
      "GPS Systems",
      "DVD Players",
      "#2 Plastic Film",
      "Lice Shampoo",
      "Mail",
      "Toys",
      "Musical Instruments - Non-metal",
      "Smoke Detectors",
      "Mattresses",
      "Catalogs",
      "Transmission Fluid",
      "#7 Plastic Bags",
      "Corrugated Cardboard",
      "Wet-strength Paperboard",
      "Cookware",
      "Digital Cameras",
      "Clear Glass Containers",
      "Green Glass Beverage Containers",
      "Candy Wrappers",
      "Envelopes",
      "Scrap Metal",
      "Kerosene",
      "Scanners",
      "Plastic Furniture",
      "Fluorescent Tubes",
      "Office Paper",
      "Construction Paper",
      "Lithium-ion Batteries",
      "Pagers",
      "#5 Plastic Bottles",
      "#5 Plastic Caps",
      "Lighter Fluid",
      "Lithium Batteries",
      "Nail Polish",
      "#6 Plastic Bags",
      "Greeting Cards",
      "Nickel-metal Hydride Batteries",
      "#6 Plastic Clamshells - Expanded",
      "Barbeque Grills",
      "#1 Plastic Beverage Bottles",
      "#1 Plastic Clamshells",
      "Plastic Packing Materials",
      "Pizza Boxes",
      "Toothbrushes",
      "Plastic Playsets",
      "Magazines",
      "Printers",
      "Paperboard",
      "Nickel-cadmium Batteries",
      "Green Glass Containers",
      "LCD Televisions",
      "Office Machines",
      "HHW",
      "Hydraulic Fluid",
      "Car Fluids",
      "Nail Polish Removers",
      "Toner Cartridges",
      "Aerosol Cans - Full",
      "Hardcover Books",
      "Lawnmowers",
      "Acids",
      "Insecticides",
      "Oil Filters",
      "Hair Dye",
      "Auto Parts",
      "Solvents",
      "Small Appliances",
      "#1 Plastic Film",
      "Booklets",
      "Aluminum Scrap",
      "Dishwashers",
      "Cigarettes",
      "Hard Drives",
      "#4 Plastic Bags",
      "Christmas Trees",
      "Brake Fluid",
      "Ornaments",
      "Tablets",
      "Brochures",
      "Game Consoles",
      "Arts and Crafts Supplies",
      "Blue Glass Containers",
      "Nickel-zinc Batteries",
      "Button Cell Batteries",
      "Pesticides",
      "Nonferrous Metals",
      "Motor Oil",
      "Household Furniture",
      "Photographic Chemicals",
      "Linens",
      "Leaves",
      "#6 Plastic Cups",
      "Chemistry Sets",
      "DVDs",
      "Aluminum Lids",
      "Lead-acid Batteries - Non-automotive",
      "Lighting Ballasts",
      "Cassette Tapes",
      "Medical Sharps",
      "CD Players",
      "Engine Degreasers",
      "#1 Plastic Trays",
      "Kraft Paper",
      "Record Players",
      "Cell Phones",
      "Brown Glass Beverage Containers",
      "#5 Plastic Film",
      "Stoves",
      "Heaters",
      "Varnish",
      "Zinc",
      "Non-Organic Food Waste",
      "Marine Batteries",
      "Copper",
      "#2 Plastic Clamshells",
      "Gas/Oil Mixture",
      "Aluminum Trays",
      "Brush",
      "#1 Rigid Plastics",
      "Waxed Cardboard",
      "Manila Folders",
      "Blue Glass Beverage Containers",
      "Pallets",
      "Chipboard",
      "Lumber",
      "Fertilizers",
      "CD Cases",
      "Propane Tanks",
      "Sealers",
      "Pesticide Containers",
      "VCRs",
      "Latex Paint",
      "Bicycles",
      "Paper Tubes",
      "Steel Lids",
      "Herbicides",
      "Window Envelopes",
      "#3 Plastic Bags",
      "Antifreeze",
      "Home Electronics",
      "Cell Phone Accessories",
      "Telephones",
      "Lacquer",
      "Pool Chemicals",
      "Ferrous Metals",
      "Silver-oxide Batteries",
      "#3 Plastic Bottles",
      "Office Furniture",
      "Doors",
      "Floppy Disks",
      "Desktop Computers",
      "#6 Plastic Bottles",
      "Zinc-air Batteries",
      "CRT Computer Monitors",
      "#2 Plastic Jugs - Colored",
      "Electronic Servers",
      "Eyeglasses",
      "Blueprints",
      "Hay",
      "Aluminum Pie Plates",
      "Shoes",
      "#2 Plastic Bags",
      "Garden Tools",
      "Metal Clothes Hangers",
      "Paper Sleeves",
      "Mercury Thermostats",
      "Stainless Steel",
      "Motor Oil Containers",
      "Manure",
      "Gasoline",
      "Neon Lights",
      "Tires",
      "Yard Waste",
      "Plastic Bottle Accessories",
      "Paperback Books",
      "Vinyl Records",
      "Plastic Plant Materials",
      "Radiators",
      "Shredded Paper",
      "Metal Tags",
      "CFLs",
      "Plastic Buckets",
      "Auto Bodies",
      "Clear Glass Beverage Containers",
      "#4 Plastic Bottles",
      "#5 Rigid Plastics",
      "Oil-Based Paint",
      "#3 Plastic Film",
      "LCD Computer Monitors",
      "Paper Labels",
      "Video Tapes",
      "Paper Bags",
      "#6 Plastic Peanuts",
      "Items Containing Mercury",
      "Branches",
      "X-rays",
      "Audio Equipment",
      "Musical Instruments - Metal",
      "Cables",
      "Aluminum Beverage Cans",
      "#7 Rigid Plastics",
      "Vacuum Cleaners",
      "Toasters",
      "Air Conditioners",
      "Adhesives",
      "Television Accessories",
      "#1 Plastic Non-Beverage Bottles",
      "Aerosol Cans - Empty",
      "Curling Irons",
      "Laptop Computers",
      "Tools",
      "#6 Plastic - Expanded",
      "Milk and Juice Cartons",
      "Household Cleaners",
      "Brown Glass Containers",
      "Toothpaste Tubes",
      "Boomboxes",
      "Typewriters",
      "Video Game Peripherals",
      "Paint Thinners",
      "Computer Peripherals - External",
      "Zinc-carbon Batteries",
      "Light Fixtures",
      "Chip Bags",
      "Humidifiers",
      "#6 Rigid Plastics",
      "Office Supplies",
      "#1 Plastic Bags",
      "Wood",
      "CDs",
      "Washer/Dryers",
      "#5 Plastic Clamshells",
      "Inkjet Cartridges",
      "Sporting Goods",
      "Hardware",
      "Dirt",
      "Blu-Ray Players",
      "Paper Egg Cartons",
      "Cardstock",
      "Gift Boxes",
      "#6 Plastic Cups - Expanded",
      "Two-Way Radios",
      "#2 Plastic Jugs - Clear",
      "Phone Books",
      "Hair Spray",
      "Contaminated Wood",
      "Steel Cans",
      "Receivers",
      "Vehicles",
      "Newspaper Inserts",
      "#4 Plastic Film",
      "Calculators",
      "Power Steering Fluid",
      "Plastic Egg Cartons",
      "Mixed Paper",
      "Glassine",
      "Cooking Oil",
      "#6 Plastic Film",
      "#2 Plastic Caps",
      "Fungicides",
      "Organic Food Waste",
      "Metal Paint Cans",
      "Six-pack Rings",
      "Aluminum Foil",
      "Alkaline Batteries",
      "Corks",
      "MP3 Players",
      "CRT Televisions",
      "Halogen Bulbs",
      "Wood Chips",
      "Aluminum Food Cans",
      "Dehumidifiers",
      "Paint Strippers",
      "Drink Pouches",
      "Pipe",
      "#4 Rigid Plastics",
      "Cassette Players",
      "Freezers",
      "Refrigerators",
      "Projectors",
      "#3 Rigid Plastics",
      "#5 Plastic Bags"
   ]
}
